Turkish Air Quality Data Access Tools • airqualitytr
…
Retrieve a tibble of cities available for filtering:

library(airqualitytr)
library(dplyr)
#> 
#> Attaching package: 'dplyr'
#> The following objects are masked from 'package:stats':
#> 
#>     filter, lag
#> The following objects are masked from 'package:base':
#> 
#>     intersect, setdiff, setequal, union

(cities <- list_cities())
#> # A tibble: 81 × 2
#>    city_id                              city_name     
#>    <chr>                                <chr>         
#>  1 fddbbf7e-b853-431e-89d3-3522264e9383 Adana         
#>  2 50cd2278-5573-4069-b7a9-2aacaf11431a Adıyaman      
#>  3 c9b19ecd-1ffc-4616-ab1a-790aaf539bfe Afyonkarahisar
#>  4 12b12d2f-1fd1-41a5-9142-7fe31e5134e3 Ağrı          
#>  5 0d977726-b21e-4ef8-b852-e659286f1778 Aksaray       
#>  6 b1bd61cf-1528-4a3e-9b45-c30cbf223035 Amasya        
#>  7 8dbbe10c-b2c5-44c1-bb3e-90be45aee744 Ankara        
#>  8 c414e607-cb0f-4226-997c-62a9eb563b2b Antalya       
#>  9 d40a8bdb-1402-43e6-9e92-1f1c8484632c Ardahan       
#> 10 a0da922a-ff51-4e7d-9f75-7fe44217d725 Artvin        
#> # ℹ 71 more rows
…
