Getting Started with airqualitytr
…
# Compare sizes
nrow(hourly_data) # ~168 rows (7 days * 24 hours)
#> [1] 168
nrow(daily_data) # ~31 rows (31 days)
#> [1] 31

Exploring Available Data

List Cities

See all provinces with monitoring stations:

(cities <- list_cities())
#> # A tibble: 81 × 2
#>    city_id                              city_name     
#>    <chr>                                <chr>         
#>  1 fddbbf7e-b853-431e-89d3-3522264e9383 Adana         
#>  2 50cd2278-5573-4069-b7a9-2aacaf11431a Adıyaman      
#>  3 c9b19ecd-1ffc-4616-ab1a-790aaf539bfe Afyonkarahisar
#>  4 12b12d2f-1fd1-41a5-9142-7fe31e5134e3 Ağrı          
#>  5 0d977726-b21e-4ef8-b852-e659286f1778 Aksaray       
#>  6 b1bd61cf-1528-4a3e-9b45-c30cbf223035 Amasya        
#>  7 8dbbe10c-b2c5-44c1-bb3e-90be45aee744 Ankara        
#>  8 c414e607-cb0f-4226-997c-62a9eb563b2b Antalya       
#>  9 d40a8bdb-1402-43e6-9e92-1f1c8484632c Ardahan       
#> 10 a0da922a-ff51-4e7d-9f75-7fe44217d725 Artvin        
#> # ℹ 71 more rows

# Count stations per city
stations_per_city <- stations |>
  count(city_name) |>
  arrange(desc(n))

stations_per_city
#> # A tibble: 81 × 2
#>    city_name     n
#>    <chr>     <int>
#>  1 İstanbul     40
#>  2 İzmir        25
#>  3 Ankara       19
#>  4 Kocaeli      12
#>  5 Konya        12
#>  6 Bursa         9
#>  7 Manisa        9
#>  8 Adana         8
#>  9 Antalya       8
#> 10 Zonguldak     8
#> # ℹ 71 more rows

Filter Stations

Find stations matching specific criteria:

# Stations in major cities
major_cities <- c("İstanbul", "Ankara", "İzmir")

(major_city_stations <- stations |>
  filter(city_name %in% major_cities))
#> # A tibble: 84 × 20
#>    station_id   station_name city_id city_name town_id location station_sub_type
#>    <chr>        <chr>        <chr>   <chr>     <chr>   <chr>               <int>
#>  1 251a7ea1-e3… Ankara - Ba… 8dbbe1… Ankara    d13efa… POINT (…                1
#>  2 fcdb32a0-24… Ankara - Ba… 8dbbe1… Ankara    5308ea… POINT (…                1
#>  3 eec16797-8c… Ankara - Ça… 8dbbe1… Ankara    d13efa… POINT (…                1
#>  4 0ef764db-fc… Ankara - De… 8dbbe1… Ankara    5308ea… POINT (…                1
#>  5 b6cee520-e7… Ankara - Et… 8dbbe1… Ankara    3f3653… POINT (…                1
#>  6 a24eb747-ac… Ankara - Et… 8dbbe1… Ankara    5308ea… POINT (…                1
#>  7 073ba16f-a5… Ankara - Ka… 8dbbe1… Ankara    422c13… POINT (…                1
#>  8 c960495f-43… Ankara - Ke… 8dbbe1… Ankara    908bf8… POINT (…                1
#>  9 ec35e67b-2f… Ankara - Ma… 8dbbe1… Ankara    d13efa… POINT (…                1
#> 10 4ef4bba3-8a… Ankara - Os… 8dbbe1… Ankara    5308ea… POINT (…                3
#> # ℹ 74 more rows
#> # ℹ 13 more variables: company_id <chr>, company_id_name <chr>,
#> #   station_group <int>, station_group_name <chr>, sector_code <int>,
#> #   sector_code_name <chr>, basin_id <lgl>, data_periods <int>,
#> #   source_type <int>, source_type_name <chr>, area_type <int>,
#> #   area_type_name <chr>, is_portable <lgl>
…
daily_stats
#> # A tibble: 31 × 8
#>    date       station_name     parameter  mean   min   max    sd     n
#>    <date>     <chr>            <chr>     <dbl> <dbl> <dbl> <dbl> <int>
#>  1 2025-03-01 Ankara - Sıhhıye PM10       48.6  24.6  66.7 10.0     24
#>  2 2025-03-02 Ankara - Sıhhıye PM10       40.3  14.5  57.5 12.7     24
#>  3 2025-03-03 Ankara - Sıhhıye PM10       25.8  11.8  41.8  9.26    24
#>  4 2025-03-04 Ankara - Sıhhıye PM10       24.5  12.9  45.4  9.16    24
#>  5 2025-03-05 Ankara - Sıhhıye PM10       34.5  16.8  64.7 13.5     24
#>  6 2025-03-06 Ankara - Sıhhıye PM10       60.3  30.6 104.  19.3     24
#>  7 2025-03-07 Ankara - Sıhhıye PM10       48.4  18.6  95.4 22.6     24
#>  8 2025-03-08 Ankara - Sıhhıye PM10       25.8  16.6  44.1  7.55    24
#>  9 2025-03-09 Ankara - Sıhhıye PM10       34.9  12.4  55.9 12.7     24
#> 10 2025-03-10 Ankara - Sıhhıye PM10       50.8  30.9 122.  18.6     23
#> # ℹ 21 more rows
…
